Assignment 5 - DESeq2
…
3. Annotating results to construct a labeled volcano plot

Using the results generated by DESeq2, convert it to a
tibble and add one additional column that denotes whether a
gene is either: 1. Upregulated and significant at a given padj
threshold, 2.Downregulated and significant at a given padj threshold, or
3. Not significant at a given padj threshold. Name this column
volc_plot_status. Ensure the values for these labels are
UP, DOWN, and NS, respectively.  Have your function take the
DESeq2 results as well as a user-defined threshold for padj and set it
at .10.

## # A tibble: 18,852 × 8
##    genes                 baseMean log2FoldChange lfcSE  stat    pvalue      padj
##    <chr>                    <dbl>          <dbl> <dbl> <dbl>     <dbl>     <dbl>
##  1 ENSMUSG00000026418.17   11732.          -9.86 0.265 -37.2 6.67e-303 1.26e-298
##  2 ENSMUSG00000002500.16    3547.           6.18 0.181  34.2 1.18e-256 1.11e-252
##  3 ENSMUSG00000046598.16    2360.           6.06 0.198  30.6 2.20e-205 1.38e-201
##  4 ENSMUSG00000051855.16    3274.          -5.37 0.178 -30.2 4.48e-200 2.11e-196
##  5 ENSMUSG00000000031.17   25698.          -6.77 0.226 -30.0 4.03e-198 1.52e-194
##  6 ENSMUSG00000042828.13    5568.           5.30 0.181  29.3 5.75e-189 1.81e-185
##  7 ENSMUSG00000021622.4    24756.           4.55 0.163  27.9 8.22e-171 2.21e-167
##  8 ENSMUSG00000019817.19    2653.          -5.17 0.187 -27.6 2.65e-167 6.25e-164
##  9 ENSMUSG00000031972.6    11343.           4.40 0.162  27.1 3.30e-162 6.91e-159
## 10 ENSMUSG00000027750.17    6398.          -4.07 0.154 -26.4 1.13e-153 2.13e-150
## # ℹ 18,842 more rows
## # ℹ 1 more variable: volc_plot_status <chr>
…
